rpc/alpha.client.contracts.out

./tezos-client rpc get /chains/main/blocks/head/context/contracts
[ "[CONTRACT_HASH]",
  "[CONTRACT_HASH]",
  "[CONTRACT_HASH]",
  "[PUBLIC_KEY_HASH]",
  "[PUBLIC_KEY_HASH]",
  "[PUBLIC_KEY_HASH]",
  "[PUBLIC_KEY_HASH]",
  "[PUBLIC_KEY_HASH]" ]

./tezos-client rpc get /chains/main/blocks/head/context/delegates
[ "[PUBLIC_KEY_HASH]",
  "[PUBLIC_KEY_HASH]",
  "[PUBLIC_KEY_HASH]",
  "[PUBLIC_KEY_HASH]",
  "[PUBLIC_KEY_HASH]" ]

./tezos-client rpc get '/chains/main/blocks/head/context/contracts/[PUBLIC_KEY_HASH]'
{ "balance": "3800000000000",
  "delegate": "[PUBLIC_KEY_HASH]", "counter": "0" }

./tezos-client rpc get '/chains/main/blocks/head/context/contracts/[PUBLIC_KEY_HASH]/balance'
"3800000000000"

./tezos-client rpc get '/chains/main/blocks/head/context/contracts/[PUBLIC_KEY_HASH]/counter'
"0"

./tezos-client rpc get '/chains/main/blocks/head/context/contracts/[PUBLIC_KEY_HASH]/manager_key'
"[PUBLIC_KEY]"

./tezos-client rpc get '/chains/main/blocks/head/context/contracts/[PUBLIC_KEY_HASH]/delegate'
"[PUBLIC_KEY_HASH]"

./tezos-client rpc get '/chains/main/blocks/head/context/contracts/[PUBLIC_KEY_HASH]'
{ "balance": "0", "counter": "0" }

./tezos-client rpc get '/chains/main/blocks/head/context/contracts/[PUBLIC_KEY_HASH]'
{ "balance": "100000000", "counter": "1" }

./tezos-client rpc get '/chains/main/blocks/head/context/contracts/[PUBLIC_KEY_HASH]/balance'
"100000000"

./tezos-client rpc get '/chains/main/blocks/head/context/contracts/[PUBLIC_KEY_HASH]/counter'
"1"

./tezos-client rpc get '/chains/main/blocks/head/context/contracts/[PUBLIC_KEY_HASH]/manager_key'
null

./tezos-client rpc get '/chains/main/blocks/head/context/contracts/[PUBLIC_KEY_HASH]/delegate'
Fatal error:
  No service found at this URL
  

./tezos-client rpc get '/chains/main/blocks/head/context/contracts/[PUBLIC_KEY_HASH]/entrypoints'
Fatal error:
  No service found at this URL
  

./tezos-client rpc get '/chains/main/blocks/head/context/contracts/[PUBLIC_KEY_HASH]/script'
Fatal error:
  No service found at this URL
  

./tezos-client rpc get '/chains/main/blocks/head/context/contracts/[PUBLIC_KEY_HASH]/storage'
Fatal error:
  No service found at this URL
  

./tezos-client rpc get '/chains/main/blocks/head/context/contracts/[PUBLIC_KEY_HASH]'
{ "balance": "99999393", "delegate": "[PUBLIC_KEY_HASH]",
  "counter": "4" }

./tezos-client rpc get '/chains/main/blocks/head/context/contracts/[PUBLIC_KEY_HASH]/balance'
"99999393"

./tezos-client rpc get '/chains/main/blocks/head/context/contracts/[PUBLIC_KEY_HASH]/counter'
"4"

./tezos-client rpc get '/chains/main/blocks/head/context/contracts/[PUBLIC_KEY_HASH]/manager_key'
"[PUBLIC_KEY]"

./tezos-client rpc get '/chains/main/blocks/head/context/contracts/[PUBLIC_KEY_HASH]/delegate'
"[PUBLIC_KEY_HASH]"

./tezos-client rpc get '/chains/main/blocks/head/context/contracts/[PUBLIC_KEY_HASH]/entrypoints'
Fatal error:
  No service found at this URL
  

./tezos-client rpc get '/chains/main/blocks/head/context/contracts/[PUBLIC_KEY_HASH]/script'
Fatal error:
  No service found at this URL
  

./tezos-client rpc get '/chains/main/blocks/head/context/contracts/[PUBLIC_KEY_HASH]/storage'
Fatal error:
  No service found at this URL
  

./tezos-client rpc get '/chains/main/blocks/head/context/contracts/[CONTRACT_HASH]'
{ "balance": "0",
  "script":
    { "code":
        [ { "prim": "parameter", "args": [ { "prim": "string" } ] },
          { "prim": "storage",
            "args":
              [ { "prim": "option", "args": [ { "prim": "string" } ] } ] },
          { "prim": "code",
            "args":
              [ [ { "prim": "CAR" }, { "prim": "SOME" },
                  { "prim": "NIL", "args": [ { "prim": "operation" } ] },
                  { "prim": "PAIR" } ] ] } ],
      "storage":
        { "prim": "Some", "args": [ { "string": "initial storage" } ] } } }

./tezos-client rpc get '/chains/main/blocks/head/context/contracts/[CONTRACT_HASH]/balance'
"0"

./tezos-client rpc get '/chains/main/blocks/head/context/contracts/[CONTRACT_HASH]/counter'
Fatal error:
  No service found at this URL
  

./tezos-client rpc get '/chains/main/blocks/head/context/contracts/[CONTRACT_HASH]/manager_key'
Fatal error:
  No service found at this URL
  

./tezos-client rpc post '/chains/main/blocks/head/context/contracts/[CONTRACT_HASH]/big_map_get' with '{
  "key": {
    "int": "0"
  },
  "type": {
    "prim": "int"
  }
}'
null

./tezos-client rpc get '/chains/main/blocks/head/context/contracts/[CONTRACT_HASH]/entrypoints'
{ "entrypoints": {} }

./tezos-client rpc get '/chains/main/blocks/head/context/contracts/[CONTRACT_HASH]/script'
{ "code":
    [ { "prim": "parameter", "args": [ { "prim": "string" } ] },
      { "prim": "storage",
        "args": [ { "prim": "option", "args": [ { "prim": "string" } ] } ] },
      { "prim": "code",
        "args":
          [ [ { "prim": "CAR" }, { "prim": "SOME" },
              { "prim": "NIL", "args": [ { "prim": "operation" } ] },
              { "prim": "PAIR" } ] ] } ],
  "storage": { "prim": "Some", "args": [ { "string": "initial storage" } ] } }

./tezos-client rpc get '/chains/main/blocks/head/context/contracts/[CONTRACT_HASH]/storage'
{ "prim": "Some", "args": [ { "string": "initial storage" } ] }

./tezos-client rpc get '/chains/main/blocks/head/context/contracts/[CONTRACT_HASH]'
{ "balance": "0",
  "script":
    { "code":
        [ { "prim": "parameter",
            "args":
              [ { "prim": "or",
                  "args":
                    [ { "prim": "unit", "annots": [ "%default" ] },
                      { "prim": "or",
                        "args":
                          [ { "prim": "or",
                              "args":
                                [ { "prim": "string",
                                    "annots": [ "%mem_left" ] },
                                  { "prim": "string",
                                    "annots": [ "%mem_right" ] } ],
                              "annots": [ "%mem" ] },
                            { "prim": "or",
                              "args":
                                [ { "prim": "or",
                                    "args":
                                      [ { "prim": "pair",
                                          "args":
                                            [ { "prim": "string" },
                                              { "prim": "nat" } ],
                                          "annots": [ "%add_left" ] },
                                        { "prim": "pair",
                                          "args":
                                            [ { "prim": "string" },
                                              { "prim": "nat" } ],
                                          "annots": [ "%add_right" ] } ],
                                    "annots": [ "%add" ] },
                                  { "prim": "or",
                                    "args":
                                      [ { "prim": "string",
                                          "annots": [ "%rem_left" ] },
                                        { "prim": "string",
                                          "annots": [ "%rem_right" ] } ],
                                    "annots": [ "%rem" ] } ] } ] } ] } ] },
          { "prim": "storage",
            "args":
              [ { "prim": "pair",
                  "args":
                    [ { "prim": "big_map",
                        "args": [ { "prim": "string" }, { "prim": "nat" } ] },
                      { "prim": "big_map",
                        "args": [ { "prim": "string" }, { "prim": "nat" } ] } ] } ] },
          { "prim": "code",
            "args":
              [ [ { "prim": "UNPAIR" },
                  { "prim": "IF_LEFT",
                    "args":
                      [ [ { "prim": "DROP" }, { "prim": "DUP" },
                          { "prim": "CAR" },
                          { "prim": "PUSH",
                            "args": [ { "prim": "mutez" }, { "int": "0" } ] },
                          { "prim": "NONE",
                            "args": [ { "prim": "key_hash" } ] },
                          { "prim": "CREATE_CONTRACT",
                            "args":
                              [ [ { "prim": "parameter",
                                    "args": [ { "prim": "string" } ] },
                                  { "prim": "storage",
                                    "args":
                                      [ { "prim": "big_map",
                                          "args":
                                            [ { "prim": "string" },
                                              { "prim": "nat" } ] } ] },
                                  { "prim": "code",
                                    "args":
                                      [ [ { "prim": "UNPAIR" },
                                          { "prim": "DROP" },
                                          { "prim": "NIL",
                                            "args":
                                              [ { "prim": "operation" } ] },
                                          { "prim": "PAIR" } ] ] } ] ] },
                          { "prim": "DIP",
                            "args": [ [ { "prim": "DROP" } ] ] },
                          { "prim": "NIL",
                            "args": [ { "prim": "operation" } ] },
                          { "prim": "SWAP" }, { "prim": "CONS" },
                          { "prim": "PAIR" } ],
                        [ { "prim": "IF_LEFT",
                            "args":
                              [ [ { "prim": "IF_LEFT",
                                    "args":
                                      [ [ { "prim": "DIP",
                                            "args":
                                              [ [ { "prim": "UNPAIR" } ] ] },
                                          { "prim": "DIP",
                                            "args": [ [ { "prim": "DUP" } ] ] },
                                          { "prim": "MEM" },
                                          [ { "prim": "IF",
                                              "args":
                                                [ [],
                                                  [ [ { "prim": "UNIT" },
                                                      { "prim": "FAILWITH" } ] ] ] } ] ],
                                        [ { "prim": "DIP",
                                            "args":
                                              [ [ { "prim": "UNPAIR" },
                                                  { "prim": "SWAP" } ] ] },
                                          { "prim": "DIP",
                                            "args": [ [ { "prim": "DUP" } ] ] },
                                          { "prim": "MEM" },
                                          [ { "prim": "IF",
                                              "args":
                                                [ [],
                                                  [ [ { "prim": "UNIT" },
                                                      { "prim": "FAILWITH" } ] ] ] } ],
                                          { "prim": "SWAP" } ] ] } ],
                                [ { "prim": "IF_LEFT",
                                    "args":
                                      [ [ { "prim": "IF_LEFT",
                                            "args":
                                              [ [ { "prim": "UNPAIR" },
                                                  { "prim": "DIP",
                                                    "args":
                                                      [ { "int": "2" },
                                                        [ { "prim": "UNPAIR" } ] ] },
                                                  { "prim": "DIP",
                                                    "args":
                                                      [ [ { "prim": "SOME" } ] ] },
                                                  { "prim": "UPDATE" } ],
                                                [ { "prim": "UNPAIR" },
                                                  { "prim": "DIP",
                                                    "args":
                                                      [ { "int": "2" },
                                                        [ { "prim": "UNPAIR" },
                                                          { "prim": "SWAP" } ] ] },
                                                  { "prim": "DIP",
                                                    "args":
                                                      [ [ { "prim": "SOME" } ] ] },
                                                  { "prim": "UPDATE" },
                                                  { "prim": "SWAP" } ] ] } ],
                                        [ { "prim": "IF_LEFT",
                                            "args":
                                              [ [ { "prim": "DIP",
                                                    "args":
                                                      [ [ { "prim": "UNPAIR" } ] ] },
                                                  { "prim": "DIP",
                                                    "args":
                                                      [ [ { "prim": "NONE",
                                                            "args":
                                                              [ { "prim":
                                                                    "nat" } ] } ] ] },
                                                  { "prim": "UPDATE" } ],
                                                [ { "prim": "DIP",
                                                    "args":
                                                      [ [ { "prim": "UNPAIR" },
                                                          { "prim": "SWAP" } ] ] },
                                                  { "prim": "DIP",
                                                    "args":
                                                      [ [ { "prim": "NONE",
                                                            "args":
                                                              [ { "prim":
                                                                    "nat" } ] } ] ] },
                                                  { "prim": "UPDATE" },
                                                  { "prim": "SWAP" } ] ] } ] ] } ] ] },
                          { "prim": "PAIR" },
                          { "prim": "NIL",
                            "args": [ { "prim": "operation" } ] },
                          { "prim": "PAIR" } ] ] } ] ] } ],
      "storage":
        { "prim": "Pair", "args": [ { "int": "4" }, { "int": "5" } ] } } }

./tezos-client rpc get '/chains/main/blocks/head/context/contracts/[CONTRACT_HASH]/balance'
"0"

./tezos-client rpc get '/chains/main/blocks/head/context/contracts/[CONTRACT_HASH]/counter'
Fatal error:
  No service found at this URL
  

./tezos-client rpc get '/chains/main/blocks/head/context/contracts/[CONTRACT_HASH]/manager_key'
Fatal error:
  No service found at this URL
  

./tezos-client rpc post '/chains/main/blocks/head/context/contracts/[CONTRACT_HASH]/big_map_get' with '{
  "key": {
    "int": "0"
  },
  "type": {
    "prim": "int"
  }
}'
null

./tezos-client rpc get '/chains/main/blocks/head/context/contracts/[CONTRACT_HASH]/entrypoints'
{ "entrypoints":
    { "rem_right": { "prim": "string" }, "rem_left": { "prim": "string" },
      "rem":
        { "prim": "or",
          "args": [ { "prim": "string" }, { "prim": "string" } ] },
      "mem_right": { "prim": "string" }, "mem_left": { "prim": "string" },
      "mem":
        { "prim": "or",
          "args": [ { "prim": "string" }, { "prim": "string" } ] },
      "default": { "prim": "unit" },
      "add_right":
        { "prim": "pair",
          "args": [ { "prim": "string" }, { "prim": "nat" } ] },
      "add_left":
        { "prim": "pair",
          "args": [ { "prim": "string" }, { "prim": "nat" } ] },
      "add":
        { "prim": "or",
          "args":
            [ { "prim": "pair",
                "args": [ { "prim": "string" }, { "prim": "nat" } ] },
              { "prim": "pair",
                "args": [ { "prim": "string" }, { "prim": "nat" } ] } ] } } }

./tezos-client rpc get '/chains/main/blocks/head/context/contracts/[CONTRACT_HASH]/script'
{ "code":
    [ { "prim": "storage",
        "args":
          [ { "prim": "pair",
              "args":
                [ { "prim": "big_map",
                    "args": [ { "prim": "string" }, { "prim": "nat" } ] },
                  { "prim": "big_map",
                    "args": [ { "prim": "string" }, { "prim": "nat" } ] } ] } ] },
      { "prim": "parameter",
        "args":
          [ { "prim": "or",
              "args":
                [ { "prim": "unit", "annots": [ "%default" ] },
                  { "prim": "or",
                    "args":
                      [ { "prim": "or",
                          "args":
                            [ { "prim": "string", "annots": [ "%mem_left" ] },
                              { "prim": "string",
                                "annots": [ "%mem_right" ] } ],
                          "annots": [ "%mem" ] },
                        { "prim": "or",
                          "args":
                            [ { "prim": "or",
                                "args":
                                  [ { "prim": "pair",
                                      "args":
                                        [ { "prim": "string" },
                                          { "prim": "nat" } ],
                                      "annots": [ "%add_left" ] },
                                    { "prim": "pair",
                                      "args":
                                        [ { "prim": "string" },
                                          { "prim": "nat" } ],
                                      "annots": [ "%add_right" ] } ],
                                "annots": [ "%add" ] },
                              { "prim": "or",
                                "args":
                                  [ { "prim": "string",
                                      "annots": [ "%rem_left" ] },
                                    { "prim": "string",
                                      "annots": [ "%rem_right" ] } ],
                                "annots": [ "%rem" ] } ] } ] } ] } ] },
      { "prim": "code",
        "args":
          [ [ { "prim": "UNPAIR" },
              { "prim": "IF_LEFT",
                "args":
                  [ [ { "prim": "DROP" }, { "prim": "DUP" },
                      { "prim": "CAR" },
                      { "prim": "PUSH",
                        "args": [ { "prim": "mutez" }, { "int": "0" } ] },
                      { "prim": "NONE", "args": [ { "prim": "key_hash" } ] },
                      { "prim": "CREATE_CONTRACT",
                        "args":
                          [ [ { "prim": "parameter",
                                "args": [ { "prim": "string" } ] },
                              { "prim": "storage",
                                "args":
                                  [ { "prim": "big_map",
                                      "args":
                                        [ { "prim": "string" },
                                          { "prim": "nat" } ] } ] },
                              { "prim": "code",
                                "args":
                                  [ [ { "prim": "UNPAIR" },
                                      { "prim": "DROP" },
                                      { "prim": "NIL",
                                        "args": [ { "prim": "operation" } ] },
                                      { "prim": "PAIR" } ] ] } ] ] },
                      { "prim": "DIP", "args": [ [ { "prim": "DROP" } ] ] },
                      { "prim": "NIL", "args": [ { "prim": "operation" } ] },
                      { "prim": "SWAP" }, { "prim": "CONS" },
                      { "prim": "PAIR" } ],
                    [ { "prim": "IF_LEFT",
                        "args":
                          [ [ { "prim": "IF_LEFT",
                                "args":
                                  [ [ { "prim": "DIP",
                                        "args": [ [ { "prim": "UNPAIR" } ] ] },
                                      { "prim": "DIP",
                                        "args": [ [ { "prim": "DUP" } ] ] },
                                      { "prim": "MEM" },
                                      [ { "prim": "IF",
                                          "args":
                                            [ [],
                                              [ [ { "prim": "UNIT" },
                                                  { "prim": "FAILWITH" } ] ] ] } ] ],
                                    [ { "prim": "DIP",
                                        "args":
                                          [ [ { "prim": "UNPAIR" },
                                              { "prim": "SWAP" } ] ] },
                                      { "prim": "DIP",
                                        "args": [ [ { "prim": "DUP" } ] ] },
                                      { "prim": "MEM" },
                                      [ { "prim": "IF",
                                          "args":
                                            [ [],
                                              [ [ { "prim": "UNIT" },
                                                  { "prim": "FAILWITH" } ] ] ] } ],
                                      { "prim": "SWAP" } ] ] } ],
                            [ { "prim": "IF_LEFT",
                                "args":
                                  [ [ { "prim": "IF_LEFT",
                                        "args":
                                          [ [ { "prim": "UNPAIR" },
                                              { "prim": "DIP",
                                                "args":
                                                  [ { "int": "2" },
                                                    [ { "prim": "UNPAIR" } ] ] },
                                              { "prim": "DIP",
                                                "args":
                                                  [ [ { "prim": "SOME" } ] ] },
                                              { "prim": "UPDATE" } ],
                                            [ { "prim": "UNPAIR" },
                                              { "prim": "DIP",
                                                "args":
                                                  [ { "int": "2" },
                                                    [ { "prim": "UNPAIR" },
                                                      { "prim": "SWAP" } ] ] },
                                              { "prim": "DIP",
                                                "args":
                                                  [ [ { "prim": "SOME" } ] ] },
                                              { "prim": "UPDATE" },
                                              { "prim": "SWAP" } ] ] } ],
                                    [ { "prim": "IF_LEFT",
                                        "args":
                                          [ [ { "prim": "DIP",
                                                "args":
                                                  [ [ { "prim": "UNPAIR" } ] ] },
                                              { "prim": "DIP",
                                                "args":
                                                  [ [ { "prim": "NONE",
                                                        "args":
                                                          [ { "prim": "nat" } ] } ] ] },
                                              { "prim": "UPDATE" } ],
                                            [ { "prim": "DIP",
                                                "args":
                                                  [ [ { "prim": "UNPAIR" },
                                                      { "prim": "SWAP" } ] ] },
                                              { "prim": "DIP",
                                                "args":
                                                  [ [ { "prim": "NONE",
                                                        "args":
                                                          [ { "prim": "nat" } ] } ] ] },
                                              { "prim": "UPDATE" },
                                              { "prim": "SWAP" } ] ] } ] ] } ] ] },
                      { "prim": "PAIR" },
                      { "prim": "NIL", "args": [ { "prim": "operation" } ] },
                      { "prim": "PAIR" } ] ] } ] ] } ],
  "storage": { "prim": "Pair", "args": [ { "int": "4" }, { "int": "5" } ] } }

./tezos-client rpc get '/chains/main/blocks/head/context/contracts/[CONTRACT_HASH]/storage'
{ "prim": "Pair", "args": [ { "int": "4" }, { "int": "5" } ] }

./tezos-client rpc post '/chains/main/blocks/head/context/contracts/[CONTRACT_HASH]/big_map_get' with '{
  "key": {
    "string": "test"
  },
  "type": {
    "prim": "string"
  }
}'
null

./tezos-client rpc post '/chains/main/blocks/head/context/contracts/[CONTRACT_HASH]/big_map_get' with '{
  "key": {
    "string": "dup"
  },
  "type": {
    "prim": "string"
  }
}'
null
